Aprendizaje Máquina - 8 Clasificación y probabilidad
…
skin triceps skin fold thickness (mm).

bmi body mass index (weight in kg/(height in m)^2).

ped diabetes pedigree function.

age age in years.

type Yes or No, for diabetic according to WHO criteria.

diabetes_ent <- as_tibble(MASS::Pima.tr)
diabetes_pr <- as_tibble(MASS::Pima.te)
diabetes_ent

# A tibble: 200 × 8
   npreg   glu    bp  skin   bmi   ped   age type 
   <int> <int> <int> <int> <dbl> <dbl> <int> <fct>
 1     5    86    68    28  30.2 0.364    24 No   
 2     7   195    70    33  25.1 0.163    55 Yes  
 3     5    77    82    41  35.8 0.156    35 No   
 4     0   165    76    43  47.9 0.259    26 No   
 5     0   107    60    25  26.4 0.133    23 No   
 6     5    97    76    27  35.6 0.378    52 Yes  
 7     3    83    58    31  34.3 0.336    25 No   
 8     1   193    50    16  25.9 0.655    24 No   
 9     3   142    80    15  32.4 0.2      63 No   
10     2   128    78    37  43.3 1.22     31 Yes  
# ℹ 190 more rows
…
Degrees of Freedom: 199 Total (i.e. Null);  192 Residual
Null Deviance:      256.4 
Residual Deviance: 178.4    AIC: 194.4

Ahora calculamos devianza de prueba y error de clasificación:

preds_prueba <- 
  predict(flujo_ajustado, diabetes_pr, type= "prob") |> 
  bind_cols(predict(flujo_ajustado, diabetes_pr)) |> 
  bind_cols(diabetes_pr |> select(type))
preds_prueba

# A tibble: 332 × 4
   .pred_No .pred_Yes .pred_class type 
      <dbl>     <dbl> <fct>       <fct>
 1    0.232    0.768  Yes         Yes  
 2    0.960    0.0403 No          No   
 3    0.975    0.0253 No          No   
 4    0.959    0.0413 No          Yes  
 5    0.204    0.796  Yes         Yes  
 6    0.265    0.735  Yes         Yes  
 7    0.590    0.410  No          Yes  
 8    0.780    0.220  No          No   
 9    0.558    0.442  No          No   
10    0.798    0.202  No          Yes  
# ℹ 322 more rows
…
