Aprendizaje Máquina - 9 Decisiones de clasificación
…
9.5 Perfil de un clasificador binario y curvas ROC

En lugar de examinar cada punto de corte por separado, podemos hacer el análisis de todos los posibles puntos de corte mediante la curva ROC (receiver operating characteristic, de ingeniería).

Tip

Para un problema de clasificación binaria, dadas estimaciones \(\hat{p}_1(x)\), la curva ROC grafica todos los pares de (1-especificidad, sensibilidad) para cada posible punto de corte \(\hat{p}_1(x) > \alpha\).

Ejemplo

roc_tbl <- roc_curve(preds_prueba, 
  truth = type, .pred_Yes)
roc_tbl

# A tibble: 321 × 3
   .threshold specificity sensitivity
        <dbl>       <dbl>       <dbl>
 1 -Inf           0                 1
 2    0.00305     0                 1
 3    0.00345     0.00448           1
 4    0.00406     0.00897           1
 5    0.00437     0.0135            1
 6    0.00476     0.0224            1
 7    0.00486     0.0269            1
 8    0.00504     0.0314            1
 9    0.00512     0.0359            1
10    0.00562     0.0404            1
# ℹ 311 more rows
…
