Aprendizaje Máquina - 10 Calibración de probabilidades
…
conjuntos_conf <- preds_larga_tbl |> group_by(id) |> 
  filter(prob > q) |> 
  select(id, articulo = articulo_prob, prob)
conjuntos_conf

# A tibble: 14,408 × 3
# Groups:   id [10,000]
      id articulo     prob
   <int> <chr>       <dbl>
 1     1 bota        0.827
 2     1 sandalia    0.117
 3     2 suéter      0.913
 4     3 pantalón    1.00 
 5     4 pantalón    1.00 
 6     5 camisa      0.565
 7     5 playera/top 0.274
 8     6 pantalón    0.998
 9     7 abrigo      0.955
10     8 camisa      0.774
# ℹ 14,398 more rows
…
