Aprendizaje Máquina - 11 Entrenamiento, Validación y Prueba
…
# construimos conjunto de parámetros
bf_set <- parameters(penalty(range = c(-2, 2), trans = log10_trans()))
# construimos un grid para probar valores individuales
bf_grid <- grid_regular(bf_set, levels = 50)
bf_grid

# A tibble: 50 × 1
   penalty
     <dbl>
 1  0.01  
 2  0.0121
 3  0.0146
 4  0.0176
 5  0.0212
 6  0.0256
 7  0.0309
 8  0.0373
 9  0.0450
10  0.0543
# ℹ 40 more rows
…
Y corremos sobre todo el grid los modelos, probando con los cortes de validación cruzada:

metricas_vc <- tune_grid(flujo_reg,
  resamples = validacion_particion,
  grid = bf_grid,
  metrics = metric_set(rmse, mae)) 
metricas_vc |> unnest(.metrics)

# A tibble: 1,000 × 8
   splits           id     penalty .metric .estimator .estimate .config .notes  
   <list>           <chr>    <dbl> <chr>   <chr>          <dbl> <chr>   <list>  
 1 <split [113/13]> Fold01  0.01   rmse    standard        3.86 Prepro… <tibble>
 2 <split [113/13]> Fold01  0.0121 rmse    standard        3.86 Prepro… <tibble>
 3 <split [113/13]> Fold01  0.0146 rmse    standard        3.86 Prepro… <tibble>
 4 <split [113/13]> Fold01  0.0176 rmse    standard        3.86 Prepro… <tibble>
 5 <split [113/13]> Fold01  0.0212 rmse    standard        3.86 Prepro… <tibble>
 6 <split [113/13]> Fold01  0.0256 rmse    standard        3.86 Prepro… <tibble>
 7 <split [113/13]> Fold01  0.0309 rmse    standard        3.86 Prepro… <tibble>
 8 <split [113/13]> Fold01  0.0373 rmse    standard        3.87 Prepro… <tibble>
 9 <split [113/13]> Fold01  0.0450 rmse    standard        3.87 Prepro… <tibble>
10 <split [113/13]> Fold01  0.0543 rmse    standard        3.87 Prepro… <tibble>
# ℹ 990 more rows
…
Nótese que para valores bajos de penalización hay variación considerable en el error (los modelos cambian mucho de corrida a corrida). Para resumir, como explicamos arriba, podemos resumir con media y error estándar:

metricas_resumen <- metricas_vc |> 
  collect_metrics()
metricas_resumen

# A tibble: 100 × 7
   penalty .metric .estimator  mean     n std_err .config              
     <dbl> <chr>   <chr>      <dbl> <int>   <dbl> <chr>                
 1  0.01   mae     standard    3.94    10   0.312 Preprocessor1_Model01
 2  0.01   rmse    standard    4.61    10   0.330 Preprocessor1_Model01
 3  0.0121 mae     standard    3.93    10   0.311 Preprocessor1_Model02
 4  0.0121 rmse    standard    4.61    10   0.330 Preprocessor1_Model02
 5  0.0146 mae     standard    3.93    10   0.311 Preprocessor1_Model03
 6  0.0146 rmse    standard    4.60    10   0.330 Preprocessor1_Model03
 7  0.0176 mae     standard    3.93    10   0.310 Preprocessor1_Model04
 8  0.0176 rmse    standard    4.60    10   0.330 Preprocessor1_Model04
 9  0.0212 mae     standard    3.93    10   0.309 Preprocessor1_Model05
10  0.0212 rmse    standard    4.60    10   0.330 Preprocessor1_Model05
# ℹ 90 more rows
…
En el extremo, podemos hacer validación leave-one-out (LOOCV), pero

En estudios de simulación se desempeñan mejor métodos con \(k=5, 10, 20\), y cuando es posible, es mejor usar repeticiones

En nuestro ejemplo de grasa corporal:

set.seed(883)
# validación cruzada repetida
validacion_particion <- vfold_cv(grasa_ent, v = 10, repeats = 5)
# tiene información de índices en cada "fold" o "doblez" o "vuelta"
validacion_particion

#  10-fold cross-validation repeated 5 times 
# A tibble: 50 × 3
   splits           id      id2   
   <list>           <chr>   <chr> 
 1 <split [113/13]> Repeat1 Fold01
 2 <split [113/13]> Repeat1 Fold02
 3 <split [113/13]> Repeat1 Fold03
 4 <split [113/13]> Repeat1 Fold04
 5 <split [113/13]> Repeat1 Fold05
 6 <split [113/13]> Repeat1 Fold06
 7 <split [114/12]> Repeat1 Fold07
 8 <split [114/12]> Repeat1 Fold08
 9 <split [114/12]> Repeat1 Fold09
10 <split [114/12]> Repeat1 Fold10
# ℹ 40 more rows

metricas_vc <- tune_grid(flujo_reg,
  resamples = validacion_particion,
  grid = bf_grid,
  metrics = metric_set(rmse, mae)) 
mejor <- select_best(metricas_vc, metric = "rmse")
mejor_1ee <- select_by_one_std_err(metricas_vc, metric = "rmse", desc(penalty))
metricas_vc |> unnest(.metrics)

# A tibble: 5,000 × 9
   splits           id      id2    penalty .metric .estimator .estimate .config 
   <list>           <chr>   <chr>    <dbl> <chr>   <chr>          <dbl> <chr>   
 1 <split [113/13]> Repeat1 Fold01  0.01   rmse    standard        4.18 Preproc…
 2 <split [113/13]> Repeat1 Fold01  0.0121 rmse    standard        4.18 Preproc…
 3 <split [113/13]> Repeat1 Fold01  0.0146 rmse    standard        4.18 Preproc…
 4 <split [113/13]> Repeat1 Fold01  0.0176 rmse    standard        4.18 Preproc…
 5 <split [113/13]> Repeat1 Fold01  0.0212 rmse    standard        4.18 Preproc…
 6 <split [113/13]> Repeat1 Fold01  0.0256 rmse    standard        4.18 Preproc…
 7 <split [113/13]> Repeat1 Fold01  0.0309 rmse    standard        4.18 Preproc…
 8 <split [113/13]> Repeat1 Fold01  0.0373 rmse    standard        4.18 Preproc…
 9 <split [113/13]> Repeat1 Fold01  0.0450 rmse    standard        4.18 Preproc…
10 <split [113/13]> Repeat1 Fold01  0.0543 rmse    standard        4.18 Preproc…
# ℹ 4,990 more rows
# ℹ 1 more variable: .notes <list>
…
