Aprendizaje Máquina - 12 Métodos basados en árboles
…
  set_mode("classification") 
spam_receta <- recipe(spam ~ ., spam_entrena)
spam_flujo <- workflow() |> 
  add_recipe(spam_receta) |> 
  add_model(spam_arbol) 
# validación cruzada
valores_grid <- expand_grid(cost_complexity = c(exp(seq(-8, -4, 0.25))),
                            min_n = c(5, 10, 20, 40))
evaluacion_vc <- tune_grid(spam_flujo, 
                           resamples = cortes_vc,
                           grid = valores_grid)
metricas_vc <- collect_metrics(evaluacion_vc)
metricas_vc

# A tibble: 136 × 8
   cost_complexity min_n .metric  .estimator  mean     n std_err .config        
             <dbl> <dbl> <chr>    <chr>      <dbl> <int>   <dbl> <chr>          
 1        0.000335     5 accuracy binary     0.919    10 0.00538 Preprocessor1_…
 2        0.000335     5 roc_auc  binary     0.922    10 0.00801 Preprocessor1_…
 3        0.000335    10 accuracy binary     0.918    10 0.00599 Preprocessor1_…
 4        0.000335    10 roc_auc  binary     0.941    10 0.00626 Preprocessor1_…
 5        0.000335    20 accuracy binary     0.910    10 0.00537 Preprocessor1_…
 6        0.000335    20 roc_auc  binary     0.946    10 0.00433 Preprocessor1_…
 7        0.000335    40 accuracy binary     0.895    10 0.00514 Preprocessor1_…
 8        0.000335    40 roc_auc  binary     0.936    10 0.00572 Preprocessor1_…
 9        0.000431     5 accuracy binary     0.920    10 0.00546 Preprocessor1_…
10        0.000431     5 roc_auc  binary     0.923    10 0.00807 Preprocessor1_…
# ℹ 126 more rows
…
