Aprendizaje Máquina - 15 Aprendizaje no supervisado: reducción de dimensionalidad
…
15.8 SVD para películas de netflix

Vamos a intentar encontrar dimensiones latentes para los datos del concurso de predicción de Netflix (una de las componentes de las soluciones ganadoras fue descomposición en valores singulares).

ruta <- "../datos/netflix/dat_muestra_nflix.csv"
url <- "https://s3.amazonaws.com/ma-netflix/dat_muestra_nflix.csv"
if(!file.exists(ruta)){
    evals_tbl <- read_csv(url, col_types = "iii")
    write_csv(evals_tbl, ruta)
} else {
  evals_tbl <- read_csv(ruta, col_types = "iii")
}
evals_tbl

# A tibble: 20,968,941 × 5
   peli_id usuario_id_orig calif fecha      usuario_id
     <int>           <int> <int> <date>          <dbl>
 1       1            2442     3 2004-04-14          1
 2       1         1086807     3 2004-12-28          2
 3       1         2165002     4 2004-04-06          3
 4       1         1133214     4 2004-03-07          4
 5       1         1537427     4 2004-03-29          5
 6       1          525356     2 2004-07-11          6
 7       1         1910569     4 2004-04-12          7
 8       1         2421815     2 2004-02-26          8
 9       1         2508819     3 2004-05-18          9
10       1         1342007     3 2004-07-16         10
# ℹ 20,968,931 more rows
peliculas_nombres <- read_csv("../datos/netflix/movies_title_fix.csv",
                          col_names = c("peli_id", "year", "name") )

Rows: 17770 Columns: 3
── Column specification ────────────────────────────────────────────────────────
Delimiter: ","
chr (2): year, name
dbl (1): peli_id

ℹ Use `spec()` to retrieve the full column specification for this data.
ℹ Specify the column types or set `show_col_types = FALSE` to quiet this message.

peliculas_nombres

# A tibble: 17,770 × 3
   peli_id year  name                        
     <dbl> <chr> <chr>                       
 1       1 2003  Dinosaur Planet             
 2       2 2004  Isle of Man TT 2004 Review  
 3       3 1997  Character                   
 4       4 1994  Paula Abdul's Get Up & Dance
 5       5 2004  The Rise and Fall of ECW    
 6       6 1997  Sick                        
 7       7 1992  8 Man                       
 8       8 2004  What the #$*! Do We Know!?  
 9       9 1991  Class of Nuke 'Em High 2    
10      10 2001  Fighter                     
# ℹ 17,760 more rows
…
