Aprendizaje Máquina - 16 Dimensiones latentes: embeddings
…
Calculamos las firmas:

firmas_tbl <- datos_tbl_vars |> 
  pivot_longer(cols = -id_1, names_to = "variable", values_to = "valor") |> 
  group_by(id_1) |> 
  summarise(vec_1 = list(valor)) |> 
  mutate(firma = map(vec_1, ~ calc_hashes(.x))) |> 
  select(id_1, firma)
firmas_tbl

# A tibble: 120 × 2
    id_1 firma    
   <int> <list>   
 1     1 <int [4]>
 2     2 <int [4]>
 3     3 <int [4]>
 4     4 <int [4]>
 5     5 <int [4]>
 6     6 <int [4]>
 7     7 <int [4]>
 8     8 <int [4]>
 9     9 <int [4]>
10    10 <int [4]>
# ℹ 110 more rows
firmas_tbl$firma[[1]]

[1] -1  1 -1  1

firmas_tbl$firma[[2]]

[1] -1  1 -1  1

Para este ejemplo, consideraremos todos los pares que coinciden en todas las cubetas

cubetas_tbl  <- firmas_tbl |> 
  mutate(cubeta = map_chr(firma, ~ paste(.x, collapse = "/"))) 
cubetas_tbl

# A tibble: 120 × 3
    id_1 firma     cubeta    
   <int> <list>    <chr>     
 1     1 <int [4]> -1/1/-1/1 
 2     2 <int [4]> -1/1/-1/1 
 3     3 <int [4]> 1/-1/-1/-1
 4     4 <int [4]> -1/1/1/1  
 5     5 <int [4]> 1/-1/1/-1 
 6     6 <int [4]> -1/1/-1/1 
 7     7 <int [4]> 1/-1/-1/1 
 8     8 <int [4]> 1/-1/-1/1 
 9     9 <int [4]> 1/-1/-1/1 
10    10 <int [4]> -1/1/1/1  
# ℹ 110 more rows
…
Y finalmente, extraemos los pares candidatos:

candidatos_tbl <- 
  cubetas_tbl |> 
  mutate(pares_cand = map(ids, ~ combn(.x, 2, simplify = FALSE))) |> 
  select(cubeta, pares_cand) |> 
  unnest(pares_cand) |> 
  unnest_wider(pares_cand, names_sep = "_") |> 
  select(-cubeta) |> 
  unique()
candidatos_tbl

# A tibble: 949 × 2
   pares_cand_1 pares_cand_2
          <int>        <int>
 1           15           18
 2           15           22
 3           15           35
 4           15           37
 5           15           38
 6           15           60
 7           15           63
 8           15           66
 9           15           82
10           15          111
# ℹ 939 more rows
…
Joining with `by = join_by(pares_cand_1)`
Joining with `by = join_by(pares_cand_2)`

candidatos_tbl

# A tibble: 949 × 4
   pares_cand_1 pares_cand_2 punto_1   punto_2  
          <int>        <int> <list>    <list>   
 1           15           18 <dbl [2]> <dbl [2]>
 2           15           22 <dbl [2]> <dbl [2]>
 3           15           35 <dbl [2]> <dbl [2]>
 4           15           37 <dbl [2]> <dbl [2]>
 5           15           38 <dbl [2]> <dbl [2]>
 6           15           60 <dbl [2]> <dbl [2]>
 7           15           63 <dbl [2]> <dbl [2]>
 8           15           66 <dbl [2]> <dbl [2]>
 9           15           82 <dbl [2]> <dbl [2]>
10           15          111 <dbl [2]> <dbl [2]>
# ℹ 939 more rows
…
